expercise2
…
ℹ Use `spec()` to retrieve the full column specification for this data.
ℹ Specify the column types or set `show_col_types = FALSE` to quiet this message.

wildschwein_BE <- st_as_sf(wildschwein_BE, coords = c("E", "N"), crs = 2056, remove = FALSE)

wildschwein_BE

Simple feature collection with 51246 features and 6 fields
Geometry type: POINT
Dimension:     XY
Bounding box:  xmin: 2568153 ymin: 1202306 xmax: 2575154 ymax: 1207609
Projected CRS: CH1903+ / LV95
# A tibble: 51,246 × 7
   TierID TierName CollarID DatetimeUTC                E        N
 * <chr>  <chr>       <dbl> <dttm>                 <dbl>    <dbl>
 1 002A   Sabi        12275 2014-08-22 21:00:12 2570409. 1204752.
 2 002A   Sabi        12275 2014-08-22 21:15:16 2570402. 1204863.
 3 002A   Sabi        12275 2014-08-22 21:30:43 2570394. 1204826.
 4 002A   Sabi        12275 2014-08-22 21:46:07 2570379. 1204817.
 5 002A   Sabi        12275 2014-08-22 22:00:22 2570390. 1204818.
 6 002A   Sabi        12275 2014-08-22 22:15:10 2570390. 1204825.
 7 002A   Sabi        12275 2014-08-22 22:30:13 2570387. 1204831.
 8 002A   Sabi        12275 2014-08-22 22:45:11 2570381. 1204840.
 9 002A   Sabi        12275 2014-08-22 23:00:27 2570316. 1204935.
10 002A   Sabi        12275 2014-08-22 23:15:41 2570393. 1204815.
# … with 51,236 more rows, and 1 more variable: geometry <POINT [m]>
…
3.3 What is the temporal sampling interval between the locations?

wildschwein_BE <- group_by(wildschwein_BE, TierID)

wildschwein_BE <- mutate(wildschwein_BE, timelag = as.numeric(difftime(lead(DatetimeUTC), DatetimeUTC)))

wildschwein_BE

Simple feature collection with 51246 features and 7 fields
Geometry type: POINT
Dimension:     XY
Bounding box:  xmin: 2568153 ymin: 1202306 xmax: 2575154 ymax: 1207609
Projected CRS: CH1903+ / LV95
# A tibble: 51,246 × 8
# Groups:   TierID [3]
   TierID TierName CollarID DatetimeUTC                E        N
 * <chr>  <chr>       <dbl> <dttm>                 <dbl>    <dbl>
 1 002A   Sabi        12275 2014-08-22 21:00:12 2570409. 1204752.
 2 002A   Sabi        12275 2014-08-22 21:15:16 2570402. 1204863.
 3 002A   Sabi        12275 2014-08-22 21:30:43 2570394. 1204826.
 4 002A   Sabi        12275 2014-08-22 21:46:07 2570379. 1204817.
 5 002A   Sabi        12275 2014-08-22 22:00:22 2570390. 1204818.
 6 002A   Sabi        12275 2014-08-22 22:15:10 2570390. 1204825.
 7 002A   Sabi        12275 2014-08-22 22:30:13 2570387. 1204831.
 8 002A   Sabi        12275 2014-08-22 22:45:11 2570381. 1204840.
 9 002A   Sabi        12275 2014-08-22 23:00:27 2570316. 1204935.
10 002A   Sabi        12275 2014-08-22 23:15:41 2570393. 1204815.
# … with 51,236 more rows, and 2 more variables: geometry <POINT [m]>,
#   timelag <dbl>
…
[1] 111.2205

111.2205m between the positions in this example. –> Formula works, implement it in the data frame

wildschwein_BE <- wildschwein_BE |> 
  group_by(TierName) |> 
  mutate(steplength_m = sqrt((E-lead(E,1))^2 + (N-lead(N,1))^2))
wildschwein_BE

Simple feature collection with 51246 features and 8 fields
Geometry type: POINT
Dimension:     XY
Bounding box:  xmin: 2568153 ymin: 1202306 xmax: 2575154 ymax: 1207609
Projected CRS: CH1903+ / LV95
# A tibble: 51,246 × 9
# Groups:   TierName [3]
   TierID TierName CollarID DatetimeUTC                E        N
 * <chr>  <chr>       <dbl> <dttm>                 <dbl>    <dbl>
 1 002A   Sabi        12275 2014-08-22 21:00:12 2570409. 1204752.
 2 002A   Sabi        12275 2014-08-22 21:15:16 2570402. 1204863.
 3 002A   Sabi        12275 2014-08-22 21:30:43 2570394. 1204826.
 4 002A   Sabi        12275 2014-08-22 21:46:07 2570379. 1204817.
 5 002A   Sabi        12275 2014-08-22 22:00:22 2570390. 1204818.
 6 002A   Sabi        12275 2014-08-22 22:15:10 2570390. 1204825.
 7 002A   Sabi        12275 2014-08-22 22:30:13 2570387. 1204831.
 8 002A   Sabi        12275 2014-08-22 22:45:11 2570381. 1204840.
 9 002A   Sabi        12275 2014-08-22 23:00:27 2570316. 1204935.
10 002A   Sabi        12275 2014-08-22 23:15:41 2570393. 1204815.
# … with 51,236 more rows, and 3 more variables: geometry <POINT [m]>,
#   timelag <dbl>, steplength_m <dbl>

Calculate the distance traveled between two consecutive positions (steplength) for the whole data frame (result in m) using the formula for the Euclidean distance and the function lead()

wildschwein_BE |> 
  mutate(speed_ms = steplength_m/timelag)

Simple feature collection with 51246 features and 9 fields
Geometry type: POINT
Dimension:     XY
Bounding box:  xmin: 2568153 ymin: 1202306 xmax: 2575154 ymax: 1207609
Projected CRS: CH1903+ / LV95
# A tibble: 51,246 × 10
# Groups:   TierName [3]
   TierID TierName CollarID DatetimeUTC                E        N
 * <chr>  <chr>       <dbl> <dttm>                 <dbl>    <dbl>
 1 002A   Sabi        12275 2014-08-22 21:00:12 2570409. 1204752.
 2 002A   Sabi        12275 2014-08-22 21:15:16 2570402. 1204863.
 3 002A   Sabi        12275 2014-08-22 21:30:43 2570394. 1204826.
 4 002A   Sabi        12275 2014-08-22 21:46:07 2570379. 1204817.
 5 002A   Sabi        12275 2014-08-22 22:00:22 2570390. 1204818.
 6 002A   Sabi        12275 2014-08-22 22:15:10 2570390. 1204825.
 7 002A   Sabi        12275 2014-08-22 22:30:13 2570387. 1204831.
 8 002A   Sabi        12275 2014-08-22 22:45:11 2570381. 1204840.
 9 002A   Sabi        12275 2014-08-22 23:00:27 2570316. 1204935.
10 002A   Sabi        12275 2014-08-22 23:15:41 2570393. 1204815.
# … with 51,236 more rows, and 4 more variables: geometry <POINT [m]>,
#   timelag <dbl>, steplength_m <dbl>, speed_ms <dbl>
…
ℹ Use `spec()` to retrieve the full column specification for this data.
ℹ Specify the column types or set `show_col_types = FALSE` to quiet this message.

caro <- st_as_sf(caro, coords = c("E", "N"), crs = 2056, remove = FALSE)

caro

Simple feature collection with 200 features and 6 fields
Geometry type: POINT
Dimension:     XY
Bounding box:  xmin: 2570481 ymin: 1205055 xmax: 2570626 ymax: 1205130
Projected CRS: CH1903+ / LV95
# A tibble: 200 × 7
   TierID TierName CollarID DatetimeUTC                E        N
 * <chr>  <chr>       <dbl> <dttm>                 <dbl>    <dbl>
 1 010C   Caro        13973 2015-09-15 08:07:00 2570589. 1205095.
 2 010C   Caro        13973 2015-09-15 08:08:00 2570573. 1205096.
 3 010C   Caro        13973 2015-09-15 08:09:00 2570536. 1205099.
 4 010C   Caro        13973 2015-09-15 08:10:00 2570518. 1205115.
 5 010C   Caro        13973 2015-09-15 08:11:00 2570499. 1205130.
 6 010C   Caro        13973 2015-09-15 08:12:00 2570489. 1205130.
 7 010C   Caro        13973 2015-09-15 08:13:00 2570482. 1205124.
 8 010C   Caro        13973 2015-09-15 08:14:00 2570481. 1205108.
 9 010C   Caro        13973 2015-09-15 08:15:00 2570486. 1205099.
10 010C   Caro        13973 2015-09-15 08:16:00 2570490. 1205100.
# … with 190 more rows, and 1 more variable: geometry <POINT [m]>

Reduce the granularity of sampling interval by selecting every 3rd, 6th and 9th position:

caro_3 <- slice(caro, seq(from = 1, to = 200, by = 3))
caro_3

Simple feature collection with 67 features and 6 fields
Geometry type: POINT
Dimension:     XY
Bounding box:  xmin: 2570482 ymin: 1205055 xmax: 2570625 ymax: 1205124
Projected CRS: CH1903+ / LV95
# A tibble: 67 × 7
   TierID TierName CollarID DatetimeUTC                E        N
   <chr>  <chr>       <dbl> <dttm>                 <dbl>    <dbl>
 1 010C   Caro        13973 2015-09-15 08:07:00 2570589. 1205095.
 2 010C   Caro        13973 2015-09-15 08:10:00 2570518. 1205115.
 3 010C   Caro        13973 2015-09-15 08:13:00 2570482. 1205124.
 4 010C   Caro        13973 2015-09-15 08:16:00 2570490. 1205100.
 5 010C   Caro        13973 2015-09-15 08:19:00 2570497. 1205092.
 6 010C   Caro        13973 2015-09-15 08:22:00 2570499. 1205091.
 7 010C   Caro        13973 2015-09-15 08:25:00 2570500. 1205087.
 8 010C   Caro        13973 2015-09-15 08:28:00 2570496. 1205094.
 9 010C   Caro        13973 2015-09-15 08:31:00 2570497. 1205091.
10 010C   Caro        13973 2015-09-15 08:34:00 2570499. 1205091.
# … with 57 more rows, and 1 more variable: geometry <POINT [m]>

caro_6 <- slice(caro, seq(from = 1, to = 200, by = 6))
caro_6

Simple feature collection with 34 features and 6 fields
Geometry type: POINT
Dimension:     XY
Bounding box:  xmin: 2570482 ymin: 1205055 xmax: 2570625 ymax: 1205124
Projected CRS: CH1903+ / LV95
# A tibble: 34 × 7
   TierID TierName CollarID DatetimeUTC                E        N
   <chr>  <chr>       <dbl> <dttm>                 <dbl>    <dbl>
 1 010C   Caro        13973 2015-09-15 08:07:00 2570589. 1205095.
 2 010C   Caro        13973 2015-09-15 08:13:00 2570482. 1205124.
 3 010C   Caro        13973 2015-09-15 08:19:00 2570497. 1205092.
 4 010C   Caro        13973 2015-09-15 08:25:00 2570500. 1205087.
 5 010C   Caro        13973 2015-09-15 08:31:00 2570497. 1205091.
 6 010C   Caro        13973 2015-09-15 08:37:00 2570495. 1205092.
 7 010C   Caro        13973 2015-09-15 08:43:00 2570494. 1205088.
 8 010C   Caro        13973 2015-09-15 08:49:00 2570498. 1205089.
 9 010C   Caro        13973 2015-09-15 08:55:00 2570499. 1205088.
10 010C   Caro        13973 2015-09-15 09:01:00 2570498. 1205089.
# … with 24 more rows, and 1 more variable: geometry <POINT [m]>

caro_9 <- slice(caro, seq(from = 1, to = 200, by = 9))
caro_9

Simple feature collection with 23 features and 6 fields
Geometry type: POINT
Dimension:     XY
Bounding box:  xmin: 2570490 ymin: 1205058 xmax: 2570625 ymax: 1205100
Projected CRS: CH1903+ / LV95
# A tibble: 23 × 7
   TierID TierName CollarID DatetimeUTC                E        N
   <chr>  <chr>       <dbl> <dttm>                 <dbl>    <dbl>
 1 010C   Caro        13973 2015-09-15 08:07:00 2570589. 1205095.
 2 010C   Caro        13973 2015-09-15 08:16:00 2570490. 1205100.
 3 010C   Caro        13973 2015-09-15 08:25:00 2570500. 1205087.
 4 010C   Caro        13973 2015-09-15 08:34:00 2570499. 1205091.
 5 010C   Caro        13973 2015-09-15 08:43:00 2570494. 1205088.
 6 010C   Caro        13973 2015-09-15 08:52:00 2570500. 1205091.
 7 010C   Caro        13973 2015-09-15 09:01:00 2570498. 1205089.
 8 010C   Caro        13973 2015-09-15 09:10:00 2570505. 1205089.
 9 010C   Caro        13973 2015-09-15 09:19:00 2570625. 1205078.
10 010C   Caro        13973 2015-09-15 09:28:00 2570599. 1205090.
# … with 13 more rows, and 1 more variable: geometry <POINT [m]>
…
Calculate timelag, steplength and speed for these data sets:

caro <- caro |> 
  group_by(TierName) |> 
  mutate(timelag = as.numeric(difftime(lead(DatetimeUTC), DatetimeUTC)*60)) |> 
  mutate(steplength_m = sqrt((E-lead(E,1))^2 + (N-lead(N,1))^2)) |> 
  mutate(speed_ms = steplength_m/timelag)
caro

Simple feature collection with 200 features and 9 fields
Geometry type: POINT
Dimension:     XY
Bounding box:  xmin: 2570481 ymin: 1205055 xmax: 2570626 ymax: 1205130
Projected CRS: CH1903+ / LV95
# A tibble: 200 × 10
# Groups:   TierName [1]
   TierID TierName CollarID DatetimeUTC                E        N
 * <chr>  <chr>       <dbl> <dttm>                 <dbl>    <dbl>
 1 010C   Caro        13973 2015-09-15 08:07:00 2570589. 1205095.
 2 010C   Caro        13973 2015-09-15 08:08:00 2570573. 1205096.
 3 010C   Caro        13973 2015-09-15 08:09:00 2570536. 1205099.
 4 010C   Caro        13973 2015-09-15 08:10:00 2570518. 1205115.
 5 010C   Caro        13973 2015-09-15 08:11:00 2570499. 1205130.
 6 010C   Caro        13973 2015-09-15 08:12:00 2570489. 1205130.
 7 010C   Caro        13973 2015-09-15 08:13:00 2570482. 1205124.
 8 010C   Caro        13973 2015-09-15 08:14:00 2570481. 1205108.
 9 010C   Caro        13973 2015-09-15 08:15:00 2570486. 1205099.
10 010C   Caro        13973 2015-09-15 08:16:00 2570490. 1205100.
# … with 190 more rows, and 4 more variables: geometry <POINT [m]>,
#   timelag <dbl>, steplength_m <dbl>, speed_ms <dbl>

caro_3 <- caro_3 |> 
  group_by(TierName) |> 
  mutate(timelag = as.numeric(difftime(lead(DatetimeUTC), DatetimeUTC)*60)) |> 
  mutate(steplength_m = sqrt((E-lead(E,1))^2 + (N-lead(N,1))^2)) |> 
  mutate(speed_ms = steplength_m/timelag)
caro_3

Simple feature collection with 67 features and 9 fields
Geometry type: POINT
Dimension:     XY
Bounding box:  xmin: 2570482 ymin: 1205055 xmax: 2570625 ymax: 1205124
Projected CRS: CH1903+ / LV95
# A tibble: 67 × 10
# Groups:   TierName [1]
   TierID TierName CollarID DatetimeUTC                E        N
 * <chr>  <chr>       <dbl> <dttm>                 <dbl>    <dbl>
 1 010C   Caro        13973 2015-09-15 08:07:00 2570589. 1205095.
 2 010C   Caro        13973 2015-09-15 08:10:00 2570518. 1205115.
 3 010C   Caro        13973 2015-09-15 08:13:00 2570482. 1205124.
 4 010C   Caro        13973 2015-09-15 08:16:00 2570490. 1205100.
 5 010C   Caro        13973 2015-09-15 08:19:00 2570497. 1205092.
 6 010C   Caro        13973 2015-09-15 08:22:00 2570499. 1205091.
 7 010C   Caro        13973 2015-09-15 08:25:00 2570500. 1205087.
 8 010C   Caro        13973 2015-09-15 08:28:00 2570496. 1205094.
 9 010C   Caro        13973 2015-09-15 08:31:00 2570497. 1205091.
10 010C   Caro        13973 2015-09-15 08:34:00 2570499. 1205091.
# … with 57 more rows, and 4 more variables: geometry <POINT [m]>,
#   timelag <dbl>, steplength_m <dbl>, speed_ms <dbl>

caro_6 <- caro_6 |> 
  group_by(TierName) |> 
  mutate(timelag = as.numeric(difftime(lead(DatetimeUTC), DatetimeUTC)*60)) |> 
  mutate(steplength_m = sqrt((E-lead(E,1))^2 + (N-lead(N,1))^2)) |> 
  mutate(speed_ms = steplength_m/timelag)
caro_6

Simple feature collection with 34 features and 9 fields
Geometry type: POINT
Dimension:     XY
Bounding box:  xmin: 2570482 ymin: 1205055 xmax: 2570625 ymax: 1205124
Projected CRS: CH1903+ / LV95
# A tibble: 34 × 10
# Groups:   TierName [1]
   TierID TierName CollarID DatetimeUTC                E        N
 * <chr>  <chr>       <dbl> <dttm>                 <dbl>    <dbl>
 1 010C   Caro        13973 2015-09-15 08:07:00 2570589. 1205095.
 2 010C   Caro        13973 2015-09-15 08:13:00 2570482. 1205124.
 3 010C   Caro        13973 2015-09-15 08:19:00 2570497. 1205092.
 4 010C   Caro        13973 2015-09-15 08:25:00 2570500. 1205087.
 5 010C   Caro        13973 2015-09-15 08:31:00 2570497. 1205091.
 6 010C   Caro        13973 2015-09-15 08:37:00 2570495. 1205092.
 7 010C   Caro        13973 2015-09-15 08:43:00 2570494. 1205088.
 8 010C   Caro        13973 2015-09-15 08:49:00 2570498. 1205089.
 9 010C   Caro        13973 2015-09-15 08:55:00 2570499. 1205088.
10 010C   Caro        13973 2015-09-15 09:01:00 2570498. 1205089.
# … with 24 more rows, and 4 more variables: geometry <POINT [m]>,
#   timelag <dbl>, steplength_m <dbl>, speed_ms <dbl>

caro_9 <- caro_9 |> 
  group_by(TierName) |> 
  mutate(timelag = as.numeric(difftime(lead(DatetimeUTC), DatetimeUTC)*60)) |> 
  mutate(steplength_m = sqrt((E-lead(E,1))^2 + (N-lead(N,1))^2)) |> 
  mutate(speed_ms = steplength_m/timelag)
caro_9

Simple feature collection with 23 features and 9 fields
Geometry type: POINT
Dimension:     XY
Bounding box:  xmin: 2570490 ymin: 1205058 xmax: 2570625 ymax: 1205100
Projected CRS: CH1903+ / LV95
# A tibble: 23 × 10
# Groups:   TierName [1]
   TierID TierName CollarID DatetimeUTC                E        N
 * <chr>  <chr>       <dbl> <dttm>                 <dbl>    <dbl>
 1 010C   Caro        13973 2015-09-15 08:07:00 2570589. 1205095.
 2 010C   Caro        13973 2015-09-15 08:16:00 2570490. 1205100.
 3 010C   Caro        13973 2015-09-15 08:25:00 2570500. 1205087.
 4 010C   Caro        13973 2015-09-15 08:34:00 2570499. 1205091.
 5 010C   Caro        13973 2015-09-15 08:43:00 2570494. 1205088.
 6 010C   Caro        13973 2015-09-15 08:52:00 2570500. 1205091.
 7 010C   Caro        13973 2015-09-15 09:01:00 2570498. 1205089.
 8 010C   Caro        13973 2015-09-15 09:10:00 2570505. 1205089.
 9 010C   Caro        13973 2015-09-15 09:19:00 2570625. 1205078.
10 010C   Caro        13973 2015-09-15 09:28:00 2570599. 1205090.
# … with 13 more rows, and 4 more variables: geometry <POINT [m]>,
#   timelag <dbl>, steplength_m <dbl>, speed_ms <dbl>
…
Use the “rollmean” function on the “caro” dataset and visualize:

caro_3_smooth <- caro |> 
  group_by(TierName) |> 
  mutate(speed_ms = rollmean(caro$speed_ms, k = 3, fill = NA, align = "left"))
caro_3_smooth

Simple feature collection with 200 features and 9 fields
Geometry type: POINT
Dimension:     XY
Bounding box:  xmin: 2570481 ymin: 1205055 xmax: 2570626 ymax: 1205130
Projected CRS: CH1903+ / LV95
# A tibble: 200 × 10
# Groups:   TierName [1]
   TierID TierName CollarID DatetimeUTC                E        N
 * <chr>  <chr>       <dbl> <dttm>                 <dbl>    <dbl>
 1 010C   Caro        13973 2015-09-15 08:07:00 2570589. 1205095.
 2 010C   Caro        13973 2015-09-15 08:08:00 2570573. 1205096.
 3 010C   Caro        13973 2015-09-15 08:09:00 2570536. 1205099.
 4 010C   Caro        13973 2015-09-15 08:10:00 2570518. 1205115.
 5 010C   Caro        13973 2015-09-15 08:11:00 2570499. 1205130.
 6 010C   Caro        13973 2015-09-15 08:12:00 2570489. 1205130.
 7 010C   Caro        13973 2015-09-15 08:13:00 2570482. 1205124.
 8 010C   Caro        13973 2015-09-15 08:14:00 2570481. 1205108.
 9 010C   Caro        13973 2015-09-15 08:15:00 2570486. 1205099.
10 010C   Caro        13973 2015-09-15 08:16:00 2570490. 1205100.
# … with 190 more rows, and 4 more variables: geometry <POINT [m]>,
#   timelag <dbl>, steplength_m <dbl>, speed_ms <dbl>

caro_6_smooth <- caro |> 
  group_by(TierName) |> 
  mutate(speed_ms = rollmean(caro$speed_ms, k = 6, fill = NA, align = "left"))
caro_6_smooth

Simple feature collection with 200 features and 9 fields
Geometry type: POINT
Dimension:     XY
Bounding box:  xmin: 2570481 ymin: 1205055 xmax: 2570626 ymax: 1205130
Projected CRS: CH1903+ / LV95
# A tibble: 200 × 10
# Groups:   TierName [1]
   TierID TierName CollarID DatetimeUTC                E        N
 * <chr>  <chr>       <dbl> <dttm>                 <dbl>    <dbl>
 1 010C   Caro        13973 2015-09-15 08:07:00 2570589. 1205095.
 2 010C   Caro        13973 2015-09-15 08:08:00 2570573. 1205096.
 3 010C   Caro        13973 2015-09-15 08:09:00 2570536. 1205099.
 4 010C   Caro        13973 2015-09-15 08:10:00 2570518. 1205115.
 5 010C   Caro        13973 2015-09-15 08:11:00 2570499. 1205130.
 6 010C   Caro        13973 2015-09-15 08:12:00 2570489. 1205130.
 7 010C   Caro        13973 2015-09-15 08:13:00 2570482. 1205124.
 8 010C   Caro        13973 2015-09-15 08:14:00 2570481. 1205108.
 9 010C   Caro        13973 2015-09-15 08:15:00 2570486. 1205099.
10 010C   Caro        13973 2015-09-15 08:16:00 2570490. 1205100.
# … with 190 more rows, and 4 more variables: geometry <POINT [m]>,
#   timelag <dbl>, steplength_m <dbl>, speed_ms <dbl>

caro_9_smooth <- caro |> 
  group_by(TierName) |> 
  mutate(speed_ms = rollmean(caro$speed_ms, k = 6, fill = NA, align = "left"))
caro_9_smooth

Simple feature collection with 200 features and 9 fields
Geometry type: POINT
Dimension:     XY
Bounding box:  xmin: 2570481 ymin: 1205055 xmax: 2570626 ymax: 1205130
Projected CRS: CH1903+ / LV95
# A tibble: 200 × 10
# Groups:   TierName [1]
   TierID TierName CollarID DatetimeUTC                E        N
 * <chr>  <chr>       <dbl> <dttm>                 <dbl>    <dbl>
 1 010C   Caro        13973 2015-09-15 08:07:00 2570589. 1205095.
 2 010C   Caro        13973 2015-09-15 08:08:00 2570573. 1205096.
 3 010C   Caro        13973 2015-09-15 08:09:00 2570536. 1205099.
 4 010C   Caro        13973 2015-09-15 08:10:00 2570518. 1205115.
 5 010C   Caro        13973 2015-09-15 08:11:00 2570499. 1205130.
 6 010C   Caro        13973 2015-09-15 08:12:00 2570489. 1205130.
 7 010C   Caro        13973 2015-09-15 08:13:00 2570482. 1205124.
 8 010C   Caro        13973 2015-09-15 08:14:00 2570481. 1205108.
 9 010C   Caro        13973 2015-09-15 08:15:00 2570486. 1205099.
10 010C   Caro        13973 2015-09-15 08:16:00 2570490. 1205100.
# … with 190 more rows, and 4 more variables: geometry <POINT [m]>,
#   timelag <dbl>, steplength_m <dbl>, speed_ms <dbl>
…
